[
  {
    "name": "koit",
    "x_passphrase": "madebykoit",
    "usergroup_id": "h30q721yvqupynd772e72hf8w",
    "wlangroup_id": "7n8ai6eivxa865sb32ll",
    "enabled": true,
    "hide_ssid": true,
    "is_guest": true,
    "security": "open",
    "site_id": "e53qarw0pa"
  },
  {
    "name": "sadasdas",
    "x_passphrase": "madebykoit",
    "usergroup_id": "am3f9i7feaw1oxizyenz4c1a8",
    "wlangroup_id": "bkft8jcc7wv4l3wgmqe6",
    "enabled": true,
    "hide_ssid": true,
    "is_guest": true,
    "security": "open",
    "site_id": "26p510b869"
  },
  {
    "name": "dets1",
    "x_passphrase": "madebykoit",
    "usergroup_id": "97lhb654gbyoaxjcj6wtk61gh",
    "wlangroup_id": "ozvzch55atmnjs9zwstp",
    "enabled": true,
    "hide_ssid": true,
    "is_guest": true,
    "security": "open",
    "site_id": "25s1dr416s"
  },
  {
    "name": "vgggggg",
    "x_passphrase": "madebykoit",
    "usergroup_id": "u8hk4ka0npqjf8ggzk63fsi6p",
    "wlangroup_id": "2rk58vd4ngra78o8bzzh",
    "enabled": true,
    "hide_ssid": true,
    "is_guest": true,
    "security": "open",
    "site_id": "b1z7jxh2ud"
  },
  {
    "name": "Veebruar",
    "x_passphrase": "madebykoit",
    "usergroup_id": "hb405nuou9vg2vezx40ob4rec",
    "wlangroup_id": "dspm5ljpfak40tweuy27",
    "enabled": true,
    "hide_ssid": true,
    "is_guest": true,
    "security": "open",
    "site_id": "we9r0iotsg"
  },
  {
    "name": "Lõputöö test",
    "x_passphrase": "madebykoit",
    "usergroup_id": "3kyuktzmx4oak89vpwcbep776",
    "wlangroup_id": "b7sqq27k2ykxodvkjr3h",
    "enabled": true,
    "hide_ssid": false,
    "is_guest": true,
    "security": "open",
    "site_id": "bk5gqkxqio"
  },
  {
    "name": "KOIT123",
    "x_passphrase": "madebykoit",
    "usergroup_id": "dosm4lem5l403l846lf188frz",
    "wlangroup_id": "b6hzd3h51hgg1abco8ge",
    "enabled": true,
    "hide_ssid": true,
    "is_guest": true,
    "security": "open",
    "site_id": "4fwgfb3hr9"
  },
  {
    "name": "testAPRILL",
    "x_passphrase": "madebykoit",
    "usergroup_id": "e6niko71k9hfc4hhce3b6r5ij",
    "wlangroup_id": "haxf8pjurj2n068iauj0",
    "enabled": true,
    "hide_ssid": false,
    "is_guest": true,
    "security": "open",
    "site_id": "ysxug6wwk2"
  },
  {
    "name": "matu",
    "x_passphrase": "test12345",
    "usergroup_id": "srvdylrywrv092ic43aibrpz5",
    "wlangroup_id": "qtbwticsj0txwmzh4lo4",
    "enabled": false,
    "hide_ssid": false,
    "is_guest": true,
    "security": "wpapsk",
    "site_id": "emrhzy42dr"
  },
  {
    "name": "koit123",
    "x_passphrase": "madebykoit",
    "usergroup_id": "wzqfdo8g98tpx0denjoazph10",
    "wlangroup_id": "eh3u1i0ghk0vkn8tuplh",
    "enabled": false,
    "hide_ssid": false,
    "is_guest": true,
    "security": "open",
    "site_id": "20x5jem7jc"
  }
]