[
  {
    "_id": "ci0mmva2qbmsaezcj0kd",
    "attr_hidden_id": "False",
    "attr_no_delete": true,
    "name": "uyvzr6pxsi",
    "site_id": "nmr7d3i26avwo1q",
    "attr_hidden": false,
    "attr_no_edit": true
  },
  {
    "_id": "blb5mk6kh23mlsaagej6",
    "attr_hidden_id": "False",
    "attr_no_delete": true,
    "name": "qth9jnwa5q",
    "site_id": "nmr7d3i26avwo1q",
    "attr_hidden": false,
    "attr_no_edit": true
  },
  {
    "_id": "12fehm7qo2nz4ylkfkwh",
    "attr_hidden_id": "False",
    "attr_no_delete": true,
    "name": "yrgpivlp49",
    "site_id": "52h4jqafp1rl8vy",
    "attr_hidden": false,
    "attr_no_edit": true
  },
  {
    "_id": "7st0mrfiturjlz40efh2",
    "attr_hidden_id": "False",
    "attr_no_delete": true,
    "name": "8ts98jw05v",
    "site_id": "52h4jqafp1rl8vy",
    "attr_hidden": false,
    "attr_no_edit": true
  },
  {
    "_id": "2ozu0okvxud0074f3utv",
    "attr_hidden_id": "False",
    "attr_no_delete": true,
    "name": "ok3kwx7qdh",
    "site_id": "kvpowz5bfa4m1nw",
    "attr_hidden": false,
    "attr_no_edit": true
  },
  {
    "_id": "1bw4ffqsp64n5moetjfe",
    "attr_hidden_id": "False",
    "attr_no_delete": true,
    "name": "9xh77suo8c",
    "site_id": "kvpowz5bfa4m1nw",
    "attr_hidden": false,
    "attr_no_edit": true
  },
  {
    "_id": "1bw4ffqsp64n5moets12",
    "attr_hidden_id": "False",
    "attr_no_delete": true,
    "name": "9xh77susdq",
    "site_id": "lipa7s7pu6",
    "attr_hidden": false,
    "attr_no_edit": true
  },
  {
    "_id": "c9l22cqptjofqygxb9qd",
    "attr_hidden_id": "False",
    "attr_no_delete": true,
    "name": "a7w2cfzp8p",
    "site_id": "6oli27gqlbw9549",
    "attr_hidden": false,
    "attr_no_edit": true
  },
  {
    "_id": "hftzl2ql97tcm5ybvcv5",
    "attr_hidden_id": "False",
    "attr_no_delete": true,
    "name": "vmbbientzx",
    "site_id": "6oli27gqlbw9549",
    "attr_hidden": false,
    "attr_no_edit": true
  },
  {
    "_id": "921mdnqe88zj83l7nxaw",
    "attr_hidden_id": "False",
    "attr_no_delete": true,
    "name": "jlwgqwrjzr",
    "site_id": "m320rfkrzi5izun",
    "attr_hidden": false,
    "attr_no_edit": true
  },
  {
    "_id": "5hzv946aw6eyi17zetzw",
    "attr_hidden_id": "False",
    "attr_no_delete": true,
    "name": "7as6yxfu6q",
    "site_id": "m320rfkrzi5izun",
    "attr_hidden": false,
    "attr_no_edit": true
  },
  {
    "_id": "7z297cb2hcvj6f7hued2",
    "attr_hidden_id": "False",
    "attr_no_delete": true,
    "name": "jxtqxrhav2",
    "site_id": "w5xbe4irfuenjjh",
    "attr_hidden": false,
    "attr_no_edit": true
  },
  {
    "_id": "1vdwyptty5v60ex65wyc",
    "attr_hidden_id": "False",
    "attr_no_delete": true,
    "name": "m0lxckgllp",
    "site_id": "w5xbe4irfuenjjh",
    "attr_hidden": false,
    "attr_no_edit": true
  },
  {
    "_id": "w2b4305lesi71x6vev81",
    "attr_hidden_id": "False",
    "attr_no_delete": true,
    "name": "1tc731qz8r",
    "site_id": "hfhhkjwduexta9x",
    "attr_hidden": false,
    "attr_no_edit": true
  },
  {
    "_id": "lybhey0ulx1dv7jlyvgt",
    "attr_hidden_id": "False",
    "attr_no_delete": true,
    "name": "e6t40d0ebb",
    "site_id": "hfhhkjwduexta9x",
    "attr_hidden": false,
    "attr_no_edit": true
  },
  {
    "_id": "00r4qhurihc7xgk9u4fp",
    "attr_hidden_id": "False",
    "attr_no_delete": true,
    "name": "sssluy8axp",
    "site_id": "32kzz2mj7842ojf",
    "attr_hidden": false,
    "attr_no_edit": true
  },
  {
    "_id": "3d3pw6a7oilrol4wdsc5",
    "attr_hidden_id": "False",
    "attr_no_delete": true,
    "name": "bpixhhifj1",
    "site_id": "32kzz2mj7842ojf",
    "attr_hidden": false,
    "attr_no_edit": true
  },
  {
    "_id": "ltvnyot1tttwheuxe1tk",
    "attr_hidden_id": "False",
    "attr_no_delete": true,
    "name": "tt7vox9hj6",
    "site_id": "jlpvuqiua5a8og1",
    "attr_hidden": false,
    "attr_no_edit": true
  },
  {
    "_id": "1cibbwam56eufxnfoaa3",
    "attr_hidden_id": "False",
    "attr_no_delete": true,
    "name": "dgg032v98b",
    "site_id": "jlpvuqiua5a8og1",
    "attr_hidden": false,
    "attr_no_edit": true
  },
  {
    "_id": "n3yhyz62e1fnnbludfkf",
    "attr_hidden_id": "False",
    "attr_no_delete": true,
    "name": "vlcc6urhce",
    "site_id": "qq1ou4vp72hlx7g",
    "attr_hidden": false,
    "attr_no_edit": true
  },
  {
    "_id": "12pw1gyglgd21fxn5nxv",
    "attr_hidden_id": "False",
    "attr_no_delete": true,
    "name": "mpq5xb0vle",
    "site_id": "qq1ou4vp72hlx7g",
    "attr_hidden": false,
    "attr_no_edit": true
  },
  {
    "_id": "ijzxrzpz4t99va3pxlrq",
    "attr_hidden_id": "False",
    "attr_no_delete": true,
    "name": "mbku37jcix",
    "site_id": "qb3x1fl1hoohwfl",
    "attr_hidden": false,
    "attr_no_edit": true
  },
  {
    "_id": "fxiikhu2az42lax3bzzb",
    "attr_hidden_id": "False",
    "attr_no_delete": true,
    "name": "rdp81g9e3t",
    "site_id": "qb3x1fl1hoohwfl",
    "attr_hidden": false,
    "attr_no_edit": true
  },
  {
    "_id": "oheq6pgnlo1x8bedyuf7",
    "attr_hidden_id": "False",
    "attr_no_delete": true,
    "name": "3kkah99301",
    "site_id": "u0vxh20mubbyc5r",
    "attr_hidden": false,
    "attr_no_edit": true
  },
  {
    "_id": "o67uvvuco6339sz0b420",
    "attr_hidden_id": "False",
    "attr_no_delete": true,
    "name": "i5vfgd7di7",
    "site_id": "u0vxh20mubbyc5r",
    "attr_hidden": false,
    "attr_no_edit": true
  },
  {
    "_id": "s53ywjvxvnbi98zum87c",
    "attr_hidden_id": "False",
    "attr_no_delete": true,
    "name": "mztiswqxok",
    "site_id": "rcn8wau52roz6z7",
    "attr_hidden": false,
    "attr_no_edit": true
  },
  {
    "_id": "72wr8brtjs4dg6hohyqt",
    "attr_hidden_id": "False",
    "attr_no_delete": true,
    "name": "t4x7o2muga",
    "site_id": "rcn8wau52roz6z7",
    "attr_hidden": false,
    "attr_no_edit": true
  },
  {
    "_id": "8z2u5anqox3b2lpi3mk8",
    "attr_hidden_id": "False",
    "attr_no_delete": true,
    "name": "9bwynnem9v",
    "site_id": "opciu1pnhzereyy",
    "attr_hidden": false,
    "attr_no_edit": true
  },
  {
    "_id": "tmkv9ky42bd19zoedzk6",
    "attr_hidden_id": "False",
    "attr_no_delete": true,
    "name": "jj1ve6ddgr",
    "site_id": "opciu1pnhzereyy",
    "attr_hidden": false,
    "attr_no_edit": true
  },
  {
    "_id": "f614ew0luxc3770etau4",
    "attr_hidden_id": "False",
    "attr_no_delete": true,
    "name": "aac1zimgvo",
    "site_id": "ctx59m8gmsfkhsz",
    "attr_hidden": false,
    "attr_no_edit": true
  },
  {
    "_id": "nrroc3ggp1ue6rs14ux6",
    "attr_hidden_id": "False",
    "attr_no_delete": true,
    "name": "xec54f39e5",
    "site_id": "ctx59m8gmsfkhsz",
    "attr_hidden": false,
    "attr_no_edit": true
  },
  {
    "_id": "929uylh5qlksc40ttqrx",
    "attr_hidden_id": "False",
    "attr_no_delete": true,
    "name": "srh7d78xnm",
    "site_id": "uqld7o962r3hu5k",
    "attr_hidden": false,
    "attr_no_edit": true
  },
  {
    "_id": "fsqntdxz8y5c4ngp30y1",
    "attr_hidden_id": "False",
    "attr_no_delete": true,
    "name": "p5l4rsvcr1",
    "site_id": "uqld7o962r3hu5k",
    "attr_hidden": false,
    "attr_no_edit": true
  },
  {
    "_id": "8w4b4z7huqteapfns01l",
    "attr_hidden_id": "False",
    "attr_no_delete": true,
    "name": "lrbqdrrc1u",
    "site_id": "g06rcwnceaejvxq",
    "attr_hidden": false,
    "attr_no_edit": true
  },
  {
    "_id": "sgci5st05p5au5i9xmv2",
    "attr_hidden_id": "False",
    "attr_no_delete": true,
    "name": "vd2edruo7m",
    "site_id": "g06rcwnceaejvxq",
    "attr_hidden": false,
    "attr_no_edit": true
  },
  {
    "_id": "a6x76wai6ip1tzrnibc9",
    "attr_hidden_id": "False",
    "attr_no_delete": true,
    "name": "qym8sdmfu9",
    "site_id": "co8ifmyrvqpzfq6",
    "attr_hidden": false,
    "attr_no_edit": true
  },
  {
    "_id": "aw47kmlowtvb2o5f12lb",
    "attr_hidden_id": "False",
    "attr_no_delete": true,
    "name": "y3203ltyp3",
    "site_id": "co8ifmyrvqpzfq6",
    "attr_hidden": false,
    "attr_no_edit": true
  },
  {
    "_id": "b3s6nx75jorhjqxg275u",
    "attr_hidden_id": "False",
    "attr_no_delete": true,
    "name": "9aaunppha7",
    "site_id": "qbq8yzneh9t3ths",
    "attr_hidden": false,
    "attr_no_edit": true
  },
  {
    "_id": "nhkiuvb0onzwlw41hb1p",
    "attr_hidden_id": "False",
    "attr_no_delete": true,
    "name": "pk8f8a27t7",
    "site_id": "qbq8yzneh9t3ths",
    "attr_hidden": false,
    "attr_no_edit": true
  },
  {
    "_id": "oij5yv2vtif0wv5mwdl3",
    "attr_hidden_id": "False",
    "attr_no_delete": true,
    "name": "iu6wajhkeu",
    "site_id": "lcgvktj823sa8oz",
    "attr_hidden": false,
    "attr_no_edit": true
  },
  {
    "_id": "ipuot61vxepvblb6h8uv",
    "attr_hidden_id": "False",
    "attr_no_delete": true,
    "name": "k9dxp3mw4o",
    "site_id": "lcgvktj823sa8oz",
    "attr_hidden": false,
    "attr_no_edit": true
  },
  {
    "_id": "me90ka5yev8gphzht5tp",
    "attr_hidden_id": "False",
    "attr_no_delete": true,
    "name": "s708mat5zb",
    "site_id": "f5rseaay6qg1awa",
    "attr_hidden": false,
    "attr_no_edit": true
  },
  {
    "_id": "zomrtxnn4og4jhad3gvn",
    "attr_hidden_id": "False",
    "attr_no_delete": true,
    "name": "lv5kppnbnk",
    "site_id": "f5rseaay6qg1awa",
    "attr_hidden": false,
    "attr_no_edit": true
  },
  {
    "_id": "b6w7w4i9sktxfoxbij4e",
    "attr_hidden_id": "False",
    "attr_no_delete": true,
    "name": "6rkbzikmkv",
    "site_id": "uwzyczg6qq8ihfg",
    "attr_hidden": false,
    "attr_no_edit": true
  },
  {
    "_id": "o6q72mws9cmobl0519ze",
    "attr_hidden_id": "False",
    "attr_no_delete": true,
    "name": "s38kdtwvin",
    "site_id": "uwzyczg6qq8ihfg",
    "attr_hidden": false,
    "attr_no_edit": true
  },
  {
    "_id": "voi55674buty9jnznj9p",
    "attr_hidden_id": "False",
    "attr_no_delete": true,
    "name": "pluo6ynr6z",
    "site_id": "zbrg338r6by3vbv",
    "attr_hidden": false,
    "attr_no_edit": true
  },
  {
    "_id": "j6pxagjhlzapkfupu9bv",
    "attr_hidden_id": "False",
    "attr_no_delete": true,
    "name": "zc0f9k438g",
    "site_id": "zbrg338r6by3vbv",
    "attr_hidden": false,
    "attr_no_edit": true
  },
  {
    "_id": "46fi3cwegklru7cj0a6w",
    "attr_hidden_id": "False",
    "attr_no_delete": true,
    "name": "pz84mkopmj",
    "site_id": "o7tt8spwkjkvgy5",
    "attr_hidden": false,
    "attr_no_edit": true
  },
  {
    "_id": "m7cuokquwargbwjrefjj",
    "attr_hidden_id": "False",
    "attr_no_delete": true,
    "name": "k0h7yf8l5s",
    "site_id": "o7tt8spwkjkvgy5",
    "attr_hidden": false,
    "attr_no_edit": true
  },
  {
    "_id": "vh9wahn6wypoiccm5kvw",
    "attr_hidden_id": "False",
    "attr_no_delete": true,
    "name": "kyzyob3vst",
    "site_id": "gds3yifko1m0ysw",
    "attr_hidden": false,
    "attr_no_edit": true
  },
  {
    "_id": "7rcilrqyrruw22647k7i",
    "attr_hidden_id": "False",
    "attr_no_delete": true,
    "name": "6bm0i7rlh8",
    "site_id": "gds3yifko1m0ysw",
    "attr_hidden": false,
    "attr_no_edit": true
  },
  {
    "_id": "gz2ibrttic5cnjriirds",
    "attr_hidden_id": "False",
    "attr_no_delete": true,
    "name": "flfzqcfn7p",
    "site_id": "hv2k8prwbu6bh1y",
    "attr_hidden": false,
    "attr_no_edit": true
  },
  {
    "_id": "rsks84hyeqoi3neybkwa",
    "attr_hidden_id": "False",
    "attr_no_delete": true,
    "name": "3u8lh5uc19",
    "site_id": "hv2k8prwbu6bh1y",
    "attr_hidden": false,
    "attr_no_edit": true
  },
  {
    "_id": "fuqan64vzikjcl16atz6",
    "attr_hidden_id": "False",
    "attr_no_delete": true,
    "name": "6o23zb5h64",
    "site_id": "cmpb64mn3o4mxb2",
    "attr_hidden": false,
    "attr_no_edit": true
  },
  {
    "_id": "06upj14zr92zv82k3rwh",
    "attr_hidden_id": "False",
    "attr_no_delete": true,
    "name": "0egss02xkl",
    "site_id": "cmpb64mn3o4mxb2",
    "attr_hidden": false,
    "attr_no_edit": true
  },
  {
    "_id": "abv49l4svbbjz8um75jt",
    "attr_hidden_id": "False",
    "attr_no_delete": true,
    "name": "gcmzq0ruie",
    "site_id": "7ol8u18tzg1qk2e",
    "attr_hidden": false,
    "attr_no_edit": true
  },
  {
    "_id": "te2g95qcvw2om5ojlme3",
    "attr_hidden_id": "False",
    "attr_no_delete": true,
    "name": "habtb8y5oi",
    "site_id": "7ol8u18tzg1qk2e",
    "attr_hidden": false,
    "attr_no_edit": true
  },
  {
    "_id": "o25repldeza8i7wbwz6g",
    "attr_hidden_id": "False",
    "attr_no_delete": true,
    "name": "1l5ktvpwed",
    "site_id": "d4un401fitmhsmf",
    "attr_hidden": false,
    "attr_no_edit": true
  },
  {
    "_id": "7n8ai6eivxa865sb32ll",
    "attr_hidden_id": "False",
    "attr_no_delete": true,
    "name": "589sxc7u7s",
    "site_id": "d4un401fitmhsmf",
    "attr_hidden": false,
    "attr_no_edit": true
  },
  {
    "_id": "1leke7zfnehnmrz4ckm9",
    "attr_hidden_id": "False",
    "attr_no_delete": true,
    "name": "vz58poxlle",
    "site_id": "bjitrw1h9nysf62",
    "attr_hidden": false,
    "attr_no_edit": true
  },
  {
    "_id": "8o3n9qcgmec44tqs6x15",
    "attr_hidden_id": "False",
    "attr_no_delete": true,
    "name": "3are7cpg4z",
    "site_id": "bjitrw1h9nysf62",
    "attr_hidden": false,
    "attr_no_edit": true
  },
  {
    "_id": "bkft8jcc7wv4l3wgmqe6",
    "attr_hidden_id": "False",
    "attr_no_delete": true,
    "name": "eub5dsbfoh",
    "site_id": "7kz9nv3dgxowz09",
    "attr_hidden": false,
    "attr_no_edit": true
  },
  {
    "_id": "bei57rtr5mm8abqi2qt1",
    "attr_hidden_id": "False",
    "attr_no_delete": true,
    "name": "xy87nqjjqq",
    "site_id": "7kz9nv3dgxowz09",
    "attr_hidden": false,
    "attr_no_edit": true
  },
  {
    "_id": "ipzw17bt438n0x6sp62m",
    "attr_hidden_id": "False",
    "attr_no_delete": true,
    "name": "paqyl8golx",
    "site_id": "rf7fxui485pssnf",
    "attr_hidden": false,
    "attr_no_edit": true
  },
  {
    "_id": "t92v27qikrrahwha1p09",
    "attr_hidden_id": "False",
    "attr_no_delete": true,
    "name": "6mooyh8ak3",
    "site_id": "rf7fxui485pssnf",
    "attr_hidden": false,
    "attr_no_edit": true
  },
  {
    "_id": "bhe0ufhewlfqi2jbwgfp",
    "attr_hidden_id": "False",
    "attr_no_delete": true,
    "name": "f7fx2ti3g0",
    "site_id": "eeyk2isvxspj69m",
    "attr_hidden": false,
    "attr_no_edit": true
  },
  {
    "_id": "h764bmuh626rw2dao5xs",
    "attr_hidden_id": "False",
    "attr_no_delete": true,
    "name": "vrfgxdbr8a",
    "site_id": "eeyk2isvxspj69m",
    "attr_hidden": false,
    "attr_no_edit": true
  },
  {
    "_id": "ozvzch55atmnjs9zwstp",
    "attr_hidden_id": "False",
    "attr_no_delete": true,
    "name": "iqruowobvr",
    "site_id": "1w0qvjlrm4tlnag",
    "attr_hidden": false,
    "attr_no_edit": true
  },
  {
    "_id": "gtlasj110zj283aerw21",
    "attr_hidden_id": "False",
    "attr_no_delete": true,
    "name": "rhgvx7hakq",
    "site_id": "1w0qvjlrm4tlnag",
    "attr_hidden": false,
    "attr_no_edit": true
  },
  {
    "_id": "2rk58vd4ngra78o8bzzh",
    "attr_hidden_id": "False",
    "attr_no_delete": true,
    "name": "jcjowy7qtg",
    "site_id": "6xa211iy5xwzmxv",
    "attr_hidden": false,
    "attr_no_edit": true
  },
  {
    "_id": "2yhzk8fh751par2ovzqv",
    "attr_hidden_id": "False",
    "attr_no_delete": true,
    "name": "d7ak7zh5ij",
    "site_id": "6xa211iy5xwzmxv",
    "attr_hidden": false,
    "attr_no_edit": true
  },
  {
    "_id": "o9xhm5aao4xvwl3igy0g",
    "attr_hidden_id": "False",
    "attr_no_delete": true,
    "name": "js6q9p32uz",
    "site_id": "6xgox78z5z1pi5n",
    "attr_hidden": false,
    "attr_no_edit": true
  },
  {
    "_id": "u7mdi879sstyeydsj33f",
    "attr_hidden_id": "False",
    "attr_no_delete": true,
    "name": "aon6n5cgi6",
    "site_id": "6xgox78z5z1pi5n",
    "attr_hidden": false,
    "attr_no_edit": true
  },
  {
    "_id": "eux0sqyj2poii8q77vct",
    "attr_hidden_id": "False",
    "attr_no_delete": true,
    "name": "q54bafoorq",
    "site_id": "vvcmeydpgc2enq2",
    "attr_hidden": false,
    "attr_no_edit": true
  },
  {
    "_id": "dspm5ljpfak40tweuy27",
    "attr_hidden_id": "False",
    "attr_no_delete": true,
    "name": "vpnijizv0n",
    "site_id": "vvcmeydpgc2enq2",
    "attr_hidden": false,
    "attr_no_edit": true
  },
  {
    "_id": "b7sqq27k2ykxodvkjr3h",
    "attr_hidden_id": "False",
    "attr_no_delete": true,
    "name": "e2a30d052l",
    "site_id": "6k8y332qabsvp80",
    "attr_hidden": false,
    "attr_no_edit": true
  },
  {
    "_id": "dqeow6s3p60d2pmurs0c",
    "attr_hidden_id": "False",
    "attr_no_delete": true,
    "name": "4qnlhi7y0m",
    "site_id": "6k8y332qabsvp80",
    "attr_hidden": false,
    "attr_no_edit": true
  },
  {
    "_id": "13rjxqb6yjynyiyrxr64",
    "attr_hidden_id": "False",
    "attr_no_delete": true,
    "name": "ijeqxpnij4",
    "site_id": "55g5w0qvvrs3my2",
    "attr_hidden": false,
    "attr_no_edit": true
  },
  {
    "_id": "iehuiwmx0p2om139lybh",
    "attr_hidden_id": "False",
    "attr_no_delete": true,
    "name": "90mjmrzavi",
    "site_id": "55g5w0qvvrs3my2",
    "attr_hidden": false,
    "attr_no_edit": true
  },
  {
    "_id": "w1y7zkj0gyebdjl22h58",
    "attr_hidden_id": "False",
    "attr_no_delete": true,
    "name": "0295eh8z34",
    "site_id": "uq0z42cbtpt676b",
    "attr_hidden": false,
    "attr_no_edit": true
  },
  {
    "_id": "b6hzd3h51hgg1abco8ge",
    "attr_hidden_id": "False",
    "attr_no_delete": true,
    "name": "5ixuw3222r",
    "site_id": "uq0z42cbtpt676b",
    "attr_hidden": false,
    "attr_no_edit": true
  },
  {
    "_id": "w8hcan4ybkq9hg3x6o08",
    "attr_hidden_id": "False",
    "attr_no_delete": true,
    "name": "xvll0511e7",
    "site_id": "vwiyml7nz1biplk",
    "attr_hidden": false,
    "attr_no_edit": true
  },
  {
    "_id": "e7m3voywu7bfs8srxmkc",
    "attr_hidden_id": "False",
    "attr_no_delete": true,
    "name": "72anubw5lf",
    "site_id": "vwiyml7nz1biplk",
    "attr_hidden": false,
    "attr_no_edit": true
  },
  {
    "_id": "p1vbgspppbsgg0lisnuk",
    "attr_hidden_id": "False",
    "attr_no_delete": true,
    "name": "l9nojfcjwx",
    "site_id": "767zhhe5qk64h3u",
    "attr_hidden": false,
    "attr_no_edit": true
  },
  {
    "_id": "6bzuxlw8qmc39ub2weht",
    "attr_hidden_id": "False",
    "attr_no_delete": true,
    "name": "e9g0bqoh1a",
    "site_id": "767zhhe5qk64h3u",
    "attr_hidden": false,
    "attr_no_edit": true
  },
  {
    "_id": "wcscwqmbszt2f4cln75x",
    "attr_hidden_id": "False",
    "attr_no_delete": true,
    "name": "dgepmlbis4",
    "site_id": "ngosw01jj4ipx5h",
    "attr_hidden": false,
    "attr_no_edit": true
  },
  {
    "_id": "87mqc0z81mwah682yq0b",
    "attr_hidden_id": "False",
    "attr_no_delete": true,
    "name": "s9a3eq7c0k",
    "site_id": "ngosw01jj4ipx5h",
    "attr_hidden": false,
    "attr_no_edit": true
  },
  {
    "_id": "g9l8zyua9c32zba8vsdf",
    "attr_hidden_id": "False",
    "attr_no_delete": true,
    "name": "bz66yhadph",
    "site_id": "o3mkk0g1dpxjae4",
    "attr_hidden": false,
    "attr_no_edit": true
  },
  {
    "_id": "fnpt57s3jkwt11lsp0fc",
    "attr_hidden_id": "False",
    "attr_no_delete": true,
    "name": "jwmpoqdpks",
    "site_id": "o3mkk0g1dpxjae4",
    "attr_hidden": false,
    "attr_no_edit": true
  },
  {
    "_id": "d59db92d9trbam5vdo6d",
    "attr_hidden_id": "False",
    "attr_no_delete": true,
    "name": "hkob7gyogw",
    "site_id": "70aty4uzer51w5u",
    "attr_hidden": false,
    "attr_no_edit": true
  },
  {
    "_id": "r13040r6u093j2d120z1",
    "attr_hidden_id": "False",
    "attr_no_delete": true,
    "name": "3rldw2r8g4",
    "site_id": "70aty4uzer51w5u",
    "attr_hidden": false,
    "attr_no_edit": true
  },
  {
    "_id": "pvo8padzrj2ja7uu5l2s",
    "attr_hidden_id": "False",
    "attr_no_delete": true,
    "name": "cd2j9ctcf1",
    "site_id": "6lchomdgxiexx4u",
    "attr_hidden": false,
    "attr_no_edit": true
  },
  {
    "_id": "jq6p7yh2mdoymq28vq4w",
    "attr_hidden_id": "False",
    "attr_no_delete": true,
    "name": "bxvfbl2f8m",
    "site_id": "6lchomdgxiexx4u",
    "attr_hidden": false,
    "attr_no_edit": true
  },
  {
    "_id": "haxf8pjurj2n068iauj0",
    "attr_hidden_id": "False",
    "attr_no_delete": true,
    "name": "chbrxvwizq",
    "site_id": "zt5d83grebsa38t",
    "attr_hidden": false,
    "attr_no_edit": true
  },
  {
    "_id": "19p8w8nuiak65g7qdxkd",
    "attr_hidden_id": "False",
    "attr_no_delete": true,
    "name": "fgf7i98frn",
    "site_id": "zt5d83grebsa38t",
    "attr_hidden": false,
    "attr_no_edit": true
  },
  {
    "_id": "qtbwticsj0txwmzh4lo4",
    "attr_hidden_id": "False",
    "attr_no_delete": true,
    "name": "5qrbdrl839",
    "site_id": "siqbae7p54aomyf",
    "attr_hidden": false,
    "attr_no_edit": true
  },
  {
    "_id": "vqsq77vd4x8z4l6cgw7o",
    "attr_hidden_id": "False",
    "attr_no_delete": true,
    "name": "ecdno9b9sb",
    "site_id": "siqbae7p54aomyf",
    "attr_hidden": false,
    "attr_no_edit": true
  },
  {
    "_id": "eh3u1i0ghk0vkn8tuplh",
    "attr_hidden_id": "False",
    "attr_no_delete": true,
    "name": "eqz6jk3cok",
    "site_id": "1rrpl272xqhyf3d",
    "attr_hidden": false,
    "attr_no_edit": true
  },
  {
    "_id": "0f7k81qy2s0uu948jbf3",
    "attr_hidden_id": "False",
    "attr_no_delete": true,
    "name": "l0cr1xr6lq",
    "site_id": "1rrpl272xqhyf3d",
    "attr_hidden": false,
    "attr_no_edit": true
  }
]